{	"page": "1",	"per_page": 15,	"pages": 10,	"total": 137,	"shots": [{		"id": 1275934,		"title": "MB Filter",		"height": 600,		"width": 800,		"likes_count": 105,		"comments_count": 9,		"rebounds_count": 0,		"url": "http://dribbble.com/shots/1275934-MB-Filter",		"short_url": "http://drbl.in/jdTk",		"views_count": 1518,		"rebound_source_id": null,		"image_url": "http://dribbble.s3.amazonaws.com/users/45617/screenshots/1275934/shot.png",		"image_teaser_url": "http://dribbble.s3.amazonaws.com/users/45617/screenshots/1275934/shot_teaser.png",		"image_400_url": "http://dribbble.s3.amazonaws.com/users/45617/screenshots/1275934/shot_1x.png",		"player": {			"id": 45617,			"name": "David Kovalev",			"location": "Sarasota, FL",			"followers_count": 3807,			"draftees_count": 8,			"likes_count": 1567,			"likes_received_count": 13606,			"comments_count": 2625,			"comments_received_count": 1243,			"rebounds_count": 13,			"rebounds_received_count": 11,			"url": "http://dribbble.com/deefile",			"avatar_url": "http://dribbble.s3.amazonaws.com/users/45617/avatars/original/davlio.jpg?1310587761",			"username": "deefile",			"twitter_screen_name": "deefile",			"website_url": "http://kovastudio.com/",			"drafted_by_player_id": 14268,			"shots_count": 137,			"following_count": 255,			"created_at": "2011/07/13 15:25:51 -0400"		},		"created_at": "2013/10/17 02:40:28 -0400"	},	{		"id": 1265408,		"title": "MB Attendance",		"height": 600,		"width": 800,		"likes_count": 179,		"comments_count": 9,		"rebounds_count": 0,		"url": "http://dribbble.com/shots/1265408-MB-Attendance",		"short_url": "http://drbl.in/iZYO",		"views_count": 3081,		"rebound_source_id": null,		"image_url": "http://dribbble.s3.amazonaws.com/users/45617/screenshots/1265408/shot.png",		"image_teaser_url": "http://dribbble.s3.amazonaws.com/users/45617/screenshots/1265408/shot_teaser.png",		"image_400_url": "http://dribbble.s3.amazonaws.com/users/45617/screenshots/1265408/shot_1x.png",		"player": {			"id": 45617,			"name": "David Kovalev",			"location": "Sarasota, FL",			"followers_count": 3807,			"draftees_count": 8,			"likes_count": 1567,			"likes_received_count": 13606,			"comments_count": 2625,			"comments_received_count": 1243,			"rebounds_count": 13,			"rebounds_received_count": 11,			"url": "http://dribbble.com/deefile",			"avatar_url": "http://dribbble.s3.amazonaws.com/users/45617/avatars/original/davlio.jpg?1310587761",			"username": "deefile",			"twitter_screen_name": "deefile",			"website_url": "http://kovastudio.com/",			"drafted_by_player_id": 14268,			"shots_count": 137,			"following_count": 255,			"created_at": "2011/07/13 15:25:51 -0400"		},		"created_at": "2013/10/09 02:41:30 -0400"	},	{		"id": 1251378,		"title": "iOS7 Calculator",		"height": 600,		"width": 800,		"likes_count": 79,		"comments_count": 10,		"rebounds_count": 0,		"url": "http://dribbble.com/shots/1251378-iOS7-Calculator",		"short_url": "http://drbl.in/iUOY",		"views_count": 1129,		"rebound_source_id": null,		"image_url": "http://dribbble.s3.amazonaws.com/users/45617/screenshots/1251378/shot.png",		"image_teaser_url": "http://dribbble.s3.amazonaws.com/users/45617/screenshots/1251378/shot_teaser.png",		"image_400_url": "http://dribbble.s3.amazonaws.com/users/45617/screenshots/1251378/shot_1x.png",		"player": {			"id": 45617,			"name": "David Kovalev",			"location": "Sarasota, FL",			"followers_count": 3807,			"draftees_count": 8,			"likes_count": 1567,			"likes_received_count": 13606,			"comments_count": 2625,			"comments_received_count": 1243,			"rebounds_count": 13,			"rebounds_received_count": 11,			"url": "http://dribbble.com/deefile",			"avatar_url": "http://dribbble.s3.amazonaws.com/users/45617/avatars/original/davlio.jpg?1310587761",			"username": "deefile",			"twitter_screen_name": "deefile",			"website_url": "http://kovastudio.com/",			"drafted_by_player_id": 14268,			"shots_count": 137,			"following_count": 255,			"created_at": "2011/07/13 15:25:51 -0400"		},		"created_at": "2013/09/27 03:47:57 -0400"	},	{		"id": 1249905,		"title": "PP Concept",		"height": 600,		"width": 800,		"likes_count": 69,		"comments_count": 4,		"rebounds_count": 0,		"url": "http://dribbble.com/shots/1249905-PP-Concept",		"short_url": "http://drbl.in/iUmH",		"views_count": 1362,		"rebound_source_id": null,		"image_url": "http://dribbble.s3.amazonaws.com/users/45617/screenshots/1249905/shot4.jpg",		"image_teaser_url": "http://dribbble.s3.amazonaws.com/users/45617/screenshots/1249905/shot4_teaser.jpg",		"image_400_url": "http://dribbble.s3.amazonaws.com/users/45617/screenshots/1249905/shot4_1x.jpg",		"player": {			"id": 45617,			"name": "David Kovalev",			"location": "Sarasota, FL",			"followers_count": 3807,			"draftees_count": 8,			"likes_count": 1567,			"likes_received_count": 13606,			"comments_count": 2625,			"comments_received_count": 1243,			"rebounds_count": 13,			"rebounds_received_count": 11,			"url": "http://dribbble.com/deefile",			"avatar_url": "http://dribbble.s3.amazonaws.com/users/45617/avatars/original/davlio.jpg?1310587761",			"username": "deefile",			"twitter_screen_name": "deefile",			"website_url": "http://kovastudio.com/",			"drafted_by_player_id": 14268,			"shots_count": 137,			"following_count": 255,			"created_at": "2011/07/13 15:25:51 -0400"		},		"created_at": "2013/09/26 03:12:08 -0400"	},	{		"id": 1246775,		"title": "MB Dashboard",		"height": 600,		"width": 800,		"likes_count": 259,		"comments_count": 13,		"rebounds_count": 0,		"url": "http://dribbble.com/shots/1246775-MB-Dashboard",		"short_url": "http://drbl.in/iTex",		"views_count": 4237,		"rebound_source_id": null,		"image_url": "http://dribbble.s3.amazonaws.com/users/45617/screenshots/1246775/shot.png",		"image_teaser_url": "http://dribbble.s3.amazonaws.com/users/45617/screenshots/1246775/shot_teaser.png",		"image_400_url": "http://dribbble.s3.amazonaws.com/users/45617/screenshots/1246775/shot_1x.png",		"player": {			"id": 45617,			"name": "David Kovalev",			"location": "Sarasota, FL",			"followers_count": 3807,			"draftees_count": 8,			"likes_count": 1567,			"likes_received_count": 13606,			"comments_count": 2625,			"comments_received_count": 1243,			"rebounds_count": 13,			"rebounds_received_count": 11,			"url": "http://dribbble.com/deefile",			"avatar_url": "http://dribbble.s3.amazonaws.com/users/45617/avatars/original/davlio.jpg?1310587761",			"username": "deefile",			"twitter_screen_name": "deefile",			"website_url": "http://kovastudio.com/",			"drafted_by_player_id": 14268,			"shots_count": 137,			"following_count": 255,			"created_at": "2011/07/13 15:25:51 -0400"		},		"created_at": "2013/09/24 01:43:11 -0400"	},	{		"id": 1223238,		"title": "Dribbble Redesign",		"height": 600,		"width": 800,		"likes_count": 287,		"comments_count": 31,		"rebounds_count": 0,		"url": "http://dribbble.com/shots/1223238-Dribbble-Redesign",		"short_url": "http://drbl.in/iKtQ",		"views_count": 4501,		"rebound_source_id": null,		"image_url": "http://dribbble.s3.amazonaws.com/users/45617/screenshots/1223238/shot.png",		"image_teaser_url": "http://dribbble.s3.amazonaws.com/users/45617/screenshots/1223238/shot_teaser.png",		"image_400_url": "http://dribbble.s3.amazonaws.com/users/45617/screenshots/1223238/shot_1x.png",		"player": {			"id": 45617,			"name": "David Kovalev",			"location": "Sarasota, FL",			"followers_count": 3807,			"draftees_count": 8,			"likes_count": 1567,			"likes_received_count": 13606,			"comments_count": 2625,			"comments_received_count": 1243,			"rebounds_count": 13,			"rebounds_received_count": 11,			"url": "http://dribbble.com/deefile",			"avatar_url": "http://dribbble.s3.amazonaws.com/users/45617/avatars/original/davlio.jpg?1310587761",			"username": "deefile",			"twitter_screen_name": "deefile",			"website_url": "http://kovastudio.com/",			"drafted_by_player_id": 14268,			"shots_count": 137,			"following_count": 255,			"created_at": "2011/07/13 15:25:51 -0400"		},		"created_at": "2013/09/05 01:43:34 -0400"	},	{		"id": 1220123,		"title": "GK Login",		"height": 600,		"width": 800,		"likes_count": 40,		"comments_count": 8,		"rebounds_count": 0,		"url": "http://dribbble.com/shots/1220123-GK-Login",		"short_url": "http://drbl.in/iJlV",		"views_count": 681,		"rebound_source_id": null,		"image_url": "http://dribbble.s3.amazonaws.com/users/45617/screenshots/1220123/shot2__1_.jpg",		"image_teaser_url": "http://dribbble.s3.amazonaws.com/users/45617/screenshots/1220123/shot2__1__teaser.jpg",		"image_400_url": "http://dribbble.s3.amazonaws.com/users/45617/screenshots/1220123/shot2__1__1x.jpg",		"player": {			"id": 45617,			"name": "David Kovalev",			"location": "Sarasota, FL",			"followers_count": 3807,			"draftees_count": 8,			"likes_count": 1567,			"likes_received_count": 13606,			"comments_count": 2625,			"comments_received_count": 1243,			"rebounds_count": 13,			"rebounds_received_count": 11,			"url": "http://dribbble.com/deefile",			"avatar_url": "http://dribbble.s3.amazonaws.com/users/45617/avatars/original/davlio.jpg?1310587761",			"username": "deefile",			"twitter_screen_name": "deefile",			"website_url": "http://kovastudio.com/",			"drafted_by_player_id": 14268,			"shots_count": 137,			"following_count": 255,			"created_at": "2011/07/13 15:25:51 -0400"		},		"created_at": "2013/09/03 01:39:30 -0400"	},	{		"id": 1213195,		"title": "CMS Concept",		"height": 600,		"width": 800,		"likes_count": 146,		"comments_count": 15,		"rebounds_count": 0,		"url": "http://dribbble.com/shots/1213195-CMS-Concept",		"short_url": "http://drbl.in/iGIJ",		"views_count": 3211,		"rebound_source_id": null,		"image_url": "http://dribbble.s3.amazonaws.com/users/45617/screenshots/1213195/shot2.jpg",		"image_teaser_url": "http://dribbble.s3.amazonaws.com/users/45617/screenshots/1213195/shot2_teaser.jpg",		"image_400_url": "http://dribbble.s3.amazonaws.com/users/45617/screenshots/1213195/shot2_1x.jpg",		"player": {			"id": 45617,			"name": "David Kovalev",			"location": "Sarasota, FL",			"followers_count": 3807,			"draftees_count": 8,			"likes_count": 1567,			"likes_received_count": 13606,			"comments_count": 2625,			"comments_received_count": 1243,			"rebounds_count": 13,			"rebounds_received_count": 11,			"url": "http://dribbble.com/deefile",			"avatar_url": "http://dribbble.s3.amazonaws.com/users/45617/avatars/original/davlio.jpg?1310587761",			"username": "deefile",			"twitter_screen_name": "deefile",			"website_url": "http://kovastudio.com/",			"drafted_by_player_id": 14268,			"shots_count": 137,			"following_count": 255,			"created_at": "2011/07/13 15:25:51 -0400"		},		"created_at": "2013/08/28 01:06:00 -0400"	},	{		"id": 1202748,		"title": "TB User",		"height": 600,		"width": 800,		"likes_count": 180,		"comments_count": 13,		"rebounds_count": 0,		"url": "http://dribbble.com/shots/1202748-TB-User",		"short_url": "http://drbl.in/iCPO",		"views_count": 2996,		"rebound_source_id": null,		"image_url": "http://dribbble.s3.amazonaws.com/users/45617/screenshots/1202748/shot3.jpg",		"image_teaser_url": "http://dribbble.s3.amazonaws.com/users/45617/screenshots/1202748/shot3_teaser.jpg",		"image_400_url": "http://dribbble.s3.amazonaws.com/users/45617/screenshots/1202748/shot3_1x.jpg",		"player": {			"id": 45617,			"name": "David Kovalev",			"location": "Sarasota, FL",			"followers_count": 3807,			"draftees_count": 8,			"likes_count": 1567,			"likes_received_count": 13606,			"comments_count": 2625,			"comments_received_count": 1243,			"rebounds_count": 13,			"rebounds_received_count": 11,			"url": "http://dribbble.com/deefile",			"avatar_url": "http://dribbble.s3.amazonaws.com/users/45617/avatars/original/davlio.jpg?1310587761",			"username": "deefile",			"twitter_screen_name": "deefile",			"website_url": "http://kovastudio.com/",			"drafted_by_player_id": 14268,			"shots_count": 137,			"following_count": 255,			"created_at": "2011/07/13 15:25:51 -0400"		},		"created_at": "2013/08/20 01:52:28 -0400"	},	{		"id": 1197122,		"title": "POM Home",		"height": 600,		"width": 800,		"likes_count": 57,		"comments_count": 8,		"rebounds_count": 0,		"url": "http://dribbble.com/shots/1197122-POM-Home",		"short_url": "http://drbl.in/iALE",		"views_count": 1818,		"rebound_source_id": null,		"image_url": "http://dribbble.s3.amazonaws.com/users/45617/screenshots/1197122/home-shot2.png",		"image_teaser_url": "http://dribbble.s3.amazonaws.com/users/45617/screenshots/1197122/home-shot2_teaser.png",		"image_400_url": "http://dribbble.s3.amazonaws.com/users/45617/screenshots/1197122/home-shot2_1x.png",		"player": {			"id": 45617,			"name": "David Kovalev",			"location": "Sarasota, FL",			"followers_count": 3807,			"draftees_count": 8,			"likes_count": 1567,			"likes_received_count": 13606,			"comments_count": 2625,			"comments_received_count": 1243,			"rebounds_count": 13,			"rebounds_received_count": 11,			"url": "http://dribbble.com/deefile",			"avatar_url": "http://dribbble.s3.amazonaws.com/users/45617/avatars/original/davlio.jpg?1310587761",			"username": "deefile",			"twitter_screen_name": "deefile",			"website_url": "http://kovastudio.com/",			"drafted_by_player_id": 14268,			"shots_count": 137,			"following_count": 255,			"created_at": "2011/07/13 15:25:51 -0400"		},		"created_at": "2013/08/15 04:02:24 -0400"	},	{		"id": 1169508,		"title": "TB Sources",		"height": 600,		"width": 800,		"likes_count": 138,		"comments_count": 10,		"rebounds_count": 0,		"url": "http://dribbble.com/shots/1169508-TB-Sources",		"short_url": "http://drbl.in/iqAC",		"views_count": 2178,		"rebound_source_id": null,		"image_url": "http://dribbble.s3.amazonaws.com/users/45617/screenshots/1169508/shot__1_.png",		"image_teaser_url": "http://dribbble.s3.amazonaws.com/users/45617/screenshots/1169508/shot__1__teaser.png",		"image_400_url": "http://dribbble.s3.amazonaws.com/users/45617/screenshots/1169508/shot__1__1x.png",		"player": {			"id": 45617,			"name": "David Kovalev",			"location": "Sarasota, FL",			"followers_count": 3807,			"draftees_count": 8,			"likes_count": 1567,			"likes_received_count": 13606,			"comments_count": 2625,			"comments_received_count": 1243,			"rebounds_count": 13,			"rebounds_received_count": 11,			"url": "http://dribbble.com/deefile",			"avatar_url": "http://dribbble.s3.amazonaws.com/users/45617/avatars/original/davlio.jpg?1310587761",			"username": "deefile",			"twitter_screen_name": "deefile",			"website_url": "http://kovastudio.com/",			"drafted_by_player_id": 14268,			"shots_count": 137,			"following_count": 255,			"created_at": "2011/07/13 15:25:51 -0400"		},		"created_at": "2013/07/25 03:54:05 -0400"	},	{		"id": 1166281,		"title": "Macbook Template PSD - FREE",		"height": 600,		"width": 800,		"likes_count": 215,		"comments_count": 26,		"rebounds_count": 0,		"url": "http://dribbble.com/shots/1166281-Macbook-Template-PSD-FREE",		"short_url": "http://drbl.in/ipqz",		"views_count": 7077,		"rebound_source_id": null,		"image_url": "http://dribbble.s3.amazonaws.com/users/45617/screenshots/1166281/shot.png",		"image_teaser_url": "http://dribbble.s3.amazonaws.com/users/45617/screenshots/1166281/shot_teaser.png",		"image_400_url": "http://dribbble.s3.amazonaws.com/users/45617/screenshots/1166281/shot_1x.png",		"player": {			"id": 45617,			"name": "David Kovalev",			"location": "Sarasota, FL",			"followers_count": 3807,			"draftees_count": 8,			"likes_count": 1567,			"likes_received_count": 13606,			"comments_count": 2625,			"comments_received_count": 1243,			"rebounds_count": 13,			"rebounds_received_count": 11,			"url": "http://dribbble.com/deefile",			"avatar_url": "http://dribbble.s3.amazonaws.com/users/45617/avatars/original/davlio.jpg?1310587761",			"username": "deefile",			"twitter_screen_name": "deefile",			"website_url": "http://kovastudio.com/",			"drafted_by_player_id": 14268,			"shots_count": 137,			"following_count": 255,			"created_at": "2011/07/13 15:25:51 -0400"		},		"created_at": "2013/07/23 04:39:38 -0400"	},	{		"id": 1160308,		"title": "GK Landing",		"height": 600,		"width": 800,		"likes_count": 136,		"comments_count": 17,		"rebounds_count": 0,		"url": "http://dribbble.com/shots/1160308-GK-Landing",		"short_url": "http://drbl.in/infG",		"views_count": 2592,		"rebound_source_id": null,		"image_url": "http://dribbble.s3.amazonaws.com/users/45617/screenshots/1160308/untitled-1.png",		"image_teaser_url": "http://dribbble.s3.amazonaws.com/users/45617/screenshots/1160308/untitled-1_teaser.png",		"image_400_url": "http://dribbble.s3.amazonaws.com/users/45617/screenshots/1160308/untitled-1_1x.png",		"player": {			"id": 45617,			"name": "David Kovalev",			"location": "Sarasota, FL",			"followers_count": 3807,			"draftees_count": 8,			"likes_count": 1567,			"likes_received_count": 13606,			"comments_count": 2625,			"comments_received_count": 1243,			"rebounds_count": 13,			"rebounds_received_count": 11,			"url": "http://dribbble.com/deefile",			"avatar_url": "http://dribbble.s3.amazonaws.com/users/45617/avatars/original/davlio.jpg?1310587761",			"username": "deefile",			"twitter_screen_name": "deefile",			"website_url": "http://kovastudio.com/",			"drafted_by_player_id": 14268,			"shots_count": 137,			"following_count": 255,			"created_at": "2011/07/13 15:25:51 -0400"		},		"created_at": "2013/07/18 02:11:07 -0400"	},	{		"id": 1159104,		"title": "GK Icon",		"height": 600,		"width": 800,		"likes_count": 79,		"comments_count": 10,		"rebounds_count": 0,		"url": "http://dribbble.com/shots/1159104-GK-Icon",		"short_url": "http://drbl.in/imIy",		"views_count": 805,		"rebound_source_id": null,		"image_url": "http://dribbble.s3.amazonaws.com/users/45617/screenshots/1159104/shot2.png",		"image_teaser_url": "http://dribbble.s3.amazonaws.com/users/45617/screenshots/1159104/shot2_teaser.png",		"image_400_url": "http://dribbble.s3.amazonaws.com/users/45617/screenshots/1159104/shot2_1x.png",		"player": {			"id": 45617,			"name": "David Kovalev",			"location": "Sarasota, FL",			"followers_count": 3807,			"draftees_count": 8,			"likes_count": 1567,			"likes_received_count": 13606,			"comments_count": 2625,			"comments_received_count": 1243,			"rebounds_count": 13,			"rebounds_received_count": 11,			"url": "http://dribbble.com/deefile",			"avatar_url": "http://dribbble.s3.amazonaws.com/users/45617/avatars/original/davlio.jpg?1310587761",			"username": "deefile",			"twitter_screen_name": "deefile",			"website_url": "http://kovastudio.com/",			"drafted_by_player_id": 14268,			"shots_count": 137,			"following_count": 255,			"created_at": "2011/07/13 15:25:51 -0400"		},		"created_at": "2013/07/17 09:24:42 -0400"	},	{		"id": 1152720,		"title": "Skype Redo",		"height": 600,		"width": 800,		"likes_count": 135,		"comments_count": 10,		"rebounds_count": 0,		"url": "http://dribbble.com/shots/1152720-Skype-Redo",		"short_url": "http://drbl.in/ikpK",		"views_count": 3581,		"rebound_source_id": null,		"image_url": "http://dribbble.s3.amazonaws.com/users/45617/screenshots/1152720/shot2.png",		"image_teaser_url": "http://dribbble.s3.amazonaws.com/users/45617/screenshots/1152720/shot2_teaser.png",		"image_400_url": "http://dribbble.s3.amazonaws.com/users/45617/screenshots/1152720/shot2_1x.png",		"player": {			"id": 45617,			"name": "David Kovalev",			"location": "Sarasota, FL",			"followers_count": 3807,			"draftees_count": 8,			"likes_count": 1567,			"likes_received_count": 13606,			"comments_count": 2625,			"comments_received_count": 1243,			"rebounds_count": 13,			"rebounds_received_count": 11,			"url": "http://dribbble.com/deefile",			"avatar_url": "http://dribbble.s3.amazonaws.com/users/45617/avatars/original/davlio.jpg?1310587761",			"username": "deefile",			"twitter_screen_name": "deefile",			"website_url": "http://kovastudio.com/",			"drafted_by_player_id": 14268,			"shots_count": 137,			"following_count": 255,			"created_at": "2011/07/13 15:25:51 -0400"		},		"created_at": "2013/07/12 01:24:20 -0400"	}]}