{	"page": "1",	"per_page": 15,	"pages": 5,	"total": 68,	"shots": [{		"id": 1276294,		"title": "Happy Birthday Draplin!!!",		"height": 300,		"width": 400,		"likes_count": 170,		"comments_count": 15,		"rebounds_count": 0,		"url": "http://dribbble.com/shots/1276294-Happy-Birthday-Draplin",		"short_url": "http://drbl.in/jeag",		"views_count": 959,		"rebound_source_id": null,		"image_url": "http://dribbble.s3.amazonaws.com/users/5340/screenshots/1276294/draplin-40-head.jpg",		"image_teaser_url": "http://dribbble.s3.amazonaws.com/users/5340/screenshots/1276294/draplin-40-head_teaser.jpg",		"player": {			"id": 5340,			"name": "Tron Burgundy",			"location": "Jacksonville, Florida",			"followers_count": 1495,			"draftees_count": 4,			"likes_count": 1009,			"likes_received_count": 4519,			"comments_count": 480,			"comments_received_count": 421,			"rebounds_count": 23,			"rebounds_received_count": 21,			"url": "http://dribbble.com/tron",			"avatar_url": "http://dribbble.s3.amazonaws.com/users/5340/avatars/original/tron.jpg?1331680505",			"username": "tron",			"twitter_screen_name": "halftonedef",			"website_url": "http://www.halftonedef.com",			"drafted_by_player_id": 105,			"shots_count": 68,			"following_count": 306,			"created_at": "2010/11/01 13:48:40 -0400"		},		"created_at": "2013/10/17 09:31:04 -0400"	},	{		"id": 1260081,		"title": "Thrift Shop Poster",		"height": 600,		"width": 800,		"likes_count": 106,		"comments_count": 5,		"rebounds_count": 0,		"url": "http://dribbble.com/shots/1260081-Thrift-Shop-Poster",		"short_url": "http://drbl.in/iYar",		"views_count": 521,		"rebound_source_id": 1240631,		"image_url": "http://dribbble.s3.amazonaws.com/users/5340/screenshots/1260081/thrift-shop.jpg",		"image_teaser_url": "http://dribbble.s3.amazonaws.com/users/5340/screenshots/1260081/thrift-shop_teaser.jpg",		"image_400_url": "http://dribbble.s3.amazonaws.com/users/5340/screenshots/1260081/thrift-shop_1x.jpg",		"player": {			"id": 5340,			"name": "Tron Burgundy",			"location": "Jacksonville, Florida",			"followers_count": 1495,			"draftees_count": 4,			"likes_count": 1009,			"likes_received_count": 4519,			"comments_count": 480,			"comments_received_count": 421,			"rebounds_count": 23,			"rebounds_received_count": 21,			"url": "http://dribbble.com/tron",			"avatar_url": "http://dribbble.s3.amazonaws.com/users/5340/avatars/original/tron.jpg?1331680505",			"username": "tron",			"twitter_screen_name": "halftonedef",			"website_url": "http://www.halftonedef.com",			"drafted_by_player_id": 105,			"shots_count": 68,			"following_count": 306,			"created_at": "2010/11/01 13:48:40 -0400"		},		"created_at": "2013/10/04 09:37:27 -0400"	},	{		"id": 1241774,		"title": "Thrift Shop Poster Icons - Small",		"height": 300,		"width": 400,		"likes_count": 53,		"comments_count": 5,		"rebounds_count": 0,		"url": "http://dribbble.com/shots/1241774-Thrift-Shop-Poster-Icons-Small",		"short_url": "http://drbl.in/iRmo",		"views_count": 344,		"rebound_source_id": 1237041,		"image_url": "http://dribbble.s3.amazonaws.com/users/5340/screenshots/1241774/alwasy-summer-icons-small.jpg",		"image_teaser_url": "http://dribbble.s3.amazonaws.com/users/5340/screenshots/1241774/alwasy-summer-icons-small_teaser.jpg",		"player": {			"id": 5340,			"name": "Tron Burgundy",			"location": "Jacksonville, Florida",			"followers_count": 1495,			"draftees_count": 4,			"likes_count": 1009,			"likes_received_count": 4519,			"comments_count": 480,			"comments_received_count": 421,			"rebounds_count": 23,			"rebounds_received_count": 21,			"url": "http://dribbble.com/tron",			"avatar_url": "http://dribbble.s3.amazonaws.com/users/5340/avatars/original/tron.jpg?1331680505",			"username": "tron",			"twitter_screen_name": "halftonedef",			"website_url": "http://www.halftonedef.com",			"drafted_by_player_id": 105,			"shots_count": 68,			"following_count": 306,			"created_at": "2010/11/01 13:48:40 -0400"		},		"created_at": "2013/09/19 09:39:41 -0400"	},	{		"id": 1240631,		"title": "Thrift Shop Poster Icons - Medium",		"height": 300,		"width": 400,		"likes_count": 30,		"comments_count": 5,		"rebounds_count": 1,		"url": "http://dribbble.com/shots/1240631-Thrift-Shop-Poster-Icons-Medium",		"short_url": "http://drbl.in/iQQp",		"views_count": 173,		"rebound_source_id": 1234430,		"image_url": "http://dribbble.s3.amazonaws.com/users/5340/screenshots/1240631/alwasy-summer-icons-medium.jpg",		"image_teaser_url": "http://dribbble.s3.amazonaws.com/users/5340/screenshots/1240631/alwasy-summer-icons-medium_teaser.jpg",		"player": {			"id": 5340,			"name": "Tron Burgundy",			"location": "Jacksonville, Florida",			"followers_count": 1495,			"draftees_count": 4,			"likes_count": 1009,			"likes_received_count": 4519,			"comments_count": 480,			"comments_received_count": 421,			"rebounds_count": 23,			"rebounds_received_count": 21,			"url": "http://dribbble.com/tron",			"avatar_url": "http://dribbble.s3.amazonaws.com/users/5340/avatars/original/tron.jpg?1331680505",			"username": "tron",			"twitter_screen_name": "halftonedef",			"website_url": "http://www.halftonedef.com",			"drafted_by_player_id": 105,			"shots_count": 68,			"following_count": 306,			"created_at": "2010/11/01 13:48:40 -0400"		},		"created_at": "2013/09/18 13:23:33 -0400"	},	{		"id": 1240312,		"title": "Thrift Shop Poster Icons - Big",		"height": 300,		"width": 400,		"likes_count": 53,		"comments_count": 1,		"rebounds_count": 0,		"url": "http://dribbble.com/shots/1240312-Thrift-Shop-Poster-Icons-Big",		"short_url": "http://drbl.in/iQKi",		"views_count": 311,		"rebound_source_id": 1237034,		"image_url": "http://dribbble.s3.amazonaws.com/users/5340/screenshots/1240312/alwasy-summer-icons-big.jpg",		"image_teaser_url": "http://dribbble.s3.amazonaws.com/users/5340/screenshots/1240312/alwasy-summer-icons-big_teaser.jpg",		"player": {			"id": 5340,			"name": "Tron Burgundy",			"location": "Jacksonville, Florida",			"followers_count": 1495,			"draftees_count": 4,			"likes_count": 1009,			"likes_received_count": 4519,			"comments_count": 480,			"comments_received_count": 421,			"rebounds_count": 23,			"rebounds_received_count": 21,			"url": "http://dribbble.com/tron",			"avatar_url": "http://dribbble.s3.amazonaws.com/users/5340/avatars/original/tron.jpg?1331680505",			"username": "tron",			"twitter_screen_name": "halftonedef",			"website_url": "http://www.halftonedef.com",			"drafted_by_player_id": 105,			"shots_count": 68,			"following_count": 306,			"created_at": "2010/11/01 13:48:40 -0400"		},		"created_at": "2013/09/18 09:44:06 -0400"	},	{		"id": 1195894,		"title": "Copper Top Brewery Logo",		"height": 300,		"width": 400,		"likes_count": 75,		"comments_count": 7,		"rebounds_count": 0,		"url": "http://dribbble.com/shots/1195894-Copper-Top-Brewery-Logo",		"short_url": "http://drbl.in/iAnY",		"views_count": 472,		"rebound_source_id": null,		"image_url": "http://dribbble.s3.amazonaws.com/users/5340/screenshots/1195894/copper-top-logos.gif",		"image_teaser_url": "http://dribbble.s3.amazonaws.com/users/5340/screenshots/1195894/copper-top-logos_teaser.gif",		"player": {			"id": 5340,			"name": "Tron Burgundy",			"location": "Jacksonville, Florida",			"followers_count": 1495,			"draftees_count": 4,			"likes_count": 1009,			"likes_received_count": 4519,			"comments_count": 480,			"comments_received_count": 421,			"rebounds_count": 23,			"rebounds_received_count": 21,			"url": "http://dribbble.com/tron",			"avatar_url": "http://dribbble.s3.amazonaws.com/users/5340/avatars/original/tron.jpg?1331680505",			"username": "tron",			"twitter_screen_name": "halftonedef",			"website_url": "http://www.halftonedef.com",			"drafted_by_player_id": 105,			"shots_count": 68,			"following_count": 306,			"created_at": "2010/11/01 13:48:40 -0400"		},		"created_at": "2013/08/14 08:57:14 -0400"	},	{		"id": 1113919,		"title": "Billabong National T-Shirt",		"height": 300,		"width": 400,		"likes_count": 45,		"comments_count": 4,		"rebounds_count": 1,		"url": "http://dribbble.com/shots/1113919-Billabong-National-T-Shirt",		"short_url": "http://drbl.in/hVXB",		"views_count": 272,		"rebound_source_id": 1113607,		"image_url": "http://dribbble.s3.amazonaws.com/users/5340/screenshots/1113919/billabong-national-heather.jpg",		"image_teaser_url": "http://dribbble.s3.amazonaws.com/users/5340/screenshots/1113919/billabong-national-heather_teaser.jpg",		"player": {			"id": 5340,			"name": "Tron Burgundy",			"location": "Jacksonville, Florida",			"followers_count": 1495,			"draftees_count": 4,			"likes_count": 1009,			"likes_received_count": 4519,			"comments_count": 480,			"comments_received_count": 421,			"rebounds_count": 23,			"rebounds_received_count": 21,			"url": "http://dribbble.com/tron",			"avatar_url": "http://dribbble.s3.amazonaws.com/users/5340/avatars/original/tron.jpg?1331680505",			"username": "tron",			"twitter_screen_name": "halftonedef",			"website_url": "http://www.halftonedef.com",			"drafted_by_player_id": 105,			"shots_count": 68,			"following_count": 306,			"created_at": "2010/11/01 13:48:40 -0400"		},		"created_at": "2013/06/13 14:36:45 -0400"	},	{		"id": 1113597,		"title": "Billabong Leftovers - Skull Tee",		"height": 300,		"width": 400,		"likes_count": 56,		"comments_count": 4,		"rebounds_count": 1,		"url": "http://dribbble.com/shots/1113597-Billabong-Leftovers-Skull-Tee",		"short_url": "http://drbl.in/hVRr",		"views_count": 391,		"rebound_source_id": 1113341,		"image_url": "http://dribbble.s3.amazonaws.com/users/5340/screenshots/1113597/billabong-skull-charcoal.jpg",		"image_teaser_url": "http://dribbble.s3.amazonaws.com/users/5340/screenshots/1113597/billabong-skull-charcoal_teaser.jpg",		"player": {			"id": 5340,			"name": "Tron Burgundy",			"location": "Jacksonville, Florida",			"followers_count": 1495,			"draftees_count": 4,			"likes_count": 1009,			"likes_received_count": 4519,			"comments_count": 480,			"comments_received_count": 421,			"rebounds_count": 23,			"rebounds_received_count": 21,			"url": "http://dribbble.com/tron",			"avatar_url": "http://dribbble.s3.amazonaws.com/users/5340/avatars/original/tron.jpg?1331680505",			"username": "tron",			"twitter_screen_name": "halftonedef",			"website_url": "http://www.halftonedef.com",			"drafted_by_player_id": 105,			"shots_count": 68,			"following_count": 306,			"created_at": "2010/11/01 13:48:40 -0400"		},		"created_at": "2013/06/13 11:47:02 -0400"	},	{		"id": 1113327,		"title": "Billabong Leftovers - Type Tee",		"height": 300,		"width": 400,		"likes_count": 96,		"comments_count": 7,		"rebounds_count": 1,		"url": "http://dribbble.com/shots/1113327-Billabong-Leftovers-Type-Tee",		"short_url": "http://drbl.in/hVMh",		"views_count": 675,		"rebound_source_id": null,		"image_url": "http://dribbble.s3.amazonaws.com/users/5340/screenshots/1113327/billabong-typetee-green.jpg",		"image_teaser_url": "http://dribbble.s3.amazonaws.com/users/5340/screenshots/1113327/billabong-typetee-green_teaser.jpg",		"player": {			"id": 5340,			"name": "Tron Burgundy",			"location": "Jacksonville, Florida",			"followers_count": 1495,			"draftees_count": 4,			"likes_count": 1009,			"likes_received_count": 4519,			"comments_count": 480,			"comments_received_count": 421,			"rebounds_count": 23,			"rebounds_received_count": 21,			"url": "http://dribbble.com/tron",			"avatar_url": "http://dribbble.s3.amazonaws.com/users/5340/avatars/original/tron.jpg?1331680505",			"username": "tron",			"twitter_screen_name": "halftonedef",			"website_url": "http://www.halftonedef.com",			"drafted_by_player_id": 105,			"shots_count": 68,			"following_count": 306,			"created_at": "2010/11/01 13:48:40 -0400"		},		"created_at": "2013/06/13 09:17:12 -0400"	},	{		"id": 1083518,		"title": "Tee Design for FLA Clothing Co.",		"height": 300,		"width": 400,		"likes_count": 48,		"comments_count": 5,		"rebounds_count": 0,		"url": "http://dribbble.com/shots/1083518-Tee-Design-for-FLA-Clothing-Co",		"short_url": "http://drbl.in/hKKU",		"views_count": 231,		"rebound_source_id": null,		"image_url": "http://dribbble.s3.amazonaws.com/users/5340/screenshots/1083518/fla-clothing-type-mock.jpg",		"image_teaser_url": "http://dribbble.s3.amazonaws.com/users/5340/screenshots/1083518/fla-clothing-type-mock_teaser.jpg",		"player": {			"id": 5340,			"name": "Tron Burgundy",			"location": "Jacksonville, Florida",			"followers_count": 1495,			"draftees_count": 4,			"likes_count": 1009,			"likes_received_count": 4519,			"comments_count": 480,			"comments_received_count": 421,			"rebounds_count": 23,			"rebounds_received_count": 21,			"url": "http://dribbble.com/tron",			"avatar_url": "http://dribbble.s3.amazonaws.com/users/5340/avatars/original/tron.jpg?1331680505",			"username": "tron",			"twitter_screen_name": "halftonedef",			"website_url": "http://www.halftonedef.com",			"drafted_by_player_id": 105,			"shots_count": 68,			"following_count": 306,			"created_at": "2010/11/01 13:48:40 -0400"		},		"created_at": "2013/05/23 09:39:06 -0400"	},	{		"id": 1052837,		"title": "Liquid Courage Pint Glass by TRON",		"height": 600,		"width": 800,		"likes_count": 189,		"comments_count": 15,		"rebounds_count": 0,		"url": "http://dribbble.com/shots/1052837-Liquid-Courage-Pint-Glass-by-TRON",		"short_url": "http://drbl.in/hzsT",		"views_count": 1947,		"rebound_source_id": null,		"image_url": "http://dribbble.s3.amazonaws.com/users/5340/screenshots/1052837/liquid-courage-real-800x600.jpg",		"image_teaser_url": "http://dribbble.s3.amazonaws.com/users/5340/screenshots/1052837/liquid-courage-real-800x600_teaser.jpg",		"image_400_url": "http://dribbble.s3.amazonaws.com/users/5340/screenshots/1052837/liquid-courage-real-800x600_1x.jpg",		"player": {			"id": 5340,			"name": "Tron Burgundy",			"location": "Jacksonville, Florida",			"followers_count": 1495,			"draftees_count": 4,			"likes_count": 1009,			"likes_received_count": 4519,			"comments_count": 480,			"comments_received_count": 421,			"rebounds_count": 23,			"rebounds_received_count": 21,			"url": "http://dribbble.com/tron",			"avatar_url": "http://dribbble.s3.amazonaws.com/users/5340/avatars/original/tron.jpg?1331680505",			"username": "tron",			"twitter_screen_name": "halftonedef",			"website_url": "http://www.halftonedef.com",			"drafted_by_player_id": 105,			"shots_count": 68,			"following_count": 306,			"created_at": "2010/11/01 13:48:40 -0400"		},		"created_at": "2013/05/01 09:22:42 -0400"	},	{		"id": 1015394,		"title": "Throwback Thursday - Save Earl",		"height": 300,		"width": 400,		"likes_count": 59,		"comments_count": 5,		"rebounds_count": 2,		"url": "http://dribbble.com/shots/1015394-Throwback-Thursday-Save-Earl",		"short_url": "http://drbl.in/hlAQ",		"views_count": 701,		"rebound_source_id": null,		"image_url": "http://dribbble.s3.amazonaws.com/users/5340/screenshots/1015394/earlhickey.jpg",		"image_teaser_url": "http://dribbble.s3.amazonaws.com/users/5340/screenshots/1015394/earlhickey_teaser.jpg",		"player": {			"id": 5340,			"name": "Tron Burgundy",			"location": "Jacksonville, Florida",			"followers_count": 1495,			"draftees_count": 4,			"likes_count": 1009,			"likes_received_count": 4519,			"comments_count": 480,			"comments_received_count": 421,			"rebounds_count": 23,			"rebounds_received_count": 21,			"url": "http://dribbble.com/tron",			"avatar_url": "http://dribbble.s3.amazonaws.com/users/5340/avatars/original/tron.jpg?1331680505",			"username": "tron",			"twitter_screen_name": "halftonedef",			"website_url": "http://www.halftonedef.com",			"drafted_by_player_id": 105,			"shots_count": 68,			"following_count": 306,			"created_at": "2010/11/01 13:48:40 -0400"		},		"created_at": "2013/04/04 16:25:56 -0400"	},	{		"id": 993331,		"title": "Carl Spackler / Bill Murray Tee",		"height": 300,		"width": 400,		"likes_count": 56,		"comments_count": 8,		"rebounds_count": 0,		"url": "http://dribbble.com/shots/993331-Carl-Spackler-Bill-Murray-Tee",		"short_url": "http://drbl.in/hdsB",		"views_count": 331,		"rebound_source_id": null,		"image_url": "http://dribbble.s3.amazonaws.com/users/5340/screenshots/993331/spackler-green-big.jpg",		"image_teaser_url": "http://dribbble.s3.amazonaws.com/users/5340/screenshots/993331/spackler-green-big_teaser.jpg",		"player": {			"id": 5340,			"name": "Tron Burgundy",			"location": "Jacksonville, Florida",			"followers_count": 1495,			"draftees_count": 4,			"likes_count": 1009,			"likes_received_count": 4519,			"comments_count": 480,			"comments_received_count": 421,			"rebounds_count": 23,			"rebounds_received_count": 21,			"url": "http://dribbble.com/tron",			"avatar_url": "http://dribbble.s3.amazonaws.com/users/5340/avatars/original/tron.jpg?1331680505",			"username": "tron",			"twitter_screen_name": "halftonedef",			"website_url": "http://www.halftonedef.com",			"drafted_by_player_id": 105,			"shots_count": 68,			"following_count": 306,			"created_at": "2010/11/01 13:48:40 -0400"		},		"created_at": "2013/03/20 11:26:51 -0400"	},	{		"id": 965423,		"title": "DEVA Type Revised",		"height": 600,		"width": 800,		"likes_count": 108,		"comments_count": 11,		"rebounds_count": 0,		"url": "http://dribbble.com/shots/965423-DEVA-Type-Revised",		"short_url": "http://drbl.in/gTbR",		"views_count": 530,		"rebound_source_id": 921145,		"image_url": "http://dribbble.s3.amazonaws.com/users/5340/screenshots/965423/deva-800x600.jpg",		"image_teaser_url": "http://dribbble.s3.amazonaws.com/users/5340/screenshots/965423/deva-800x600_teaser.jpg",		"image_400_url": "http://dribbble.s3.amazonaws.com/users/5340/screenshots/965423/deva-800x600_1x.jpg",		"player": {			"id": 5340,			"name": "Tron Burgundy",			"location": "Jacksonville, Florida",			"followers_count": 1495,			"draftees_count": 4,			"likes_count": 1009,			"likes_received_count": 4519,			"comments_count": 480,			"comments_received_count": 421,			"rebounds_count": 23,			"rebounds_received_count": 21,			"url": "http://dribbble.com/tron",			"avatar_url": "http://dribbble.s3.amazonaws.com/users/5340/avatars/original/tron.jpg?1331680505",			"username": "tron",			"twitter_screen_name": "halftonedef",			"website_url": "http://www.halftonedef.com",			"drafted_by_player_id": 105,			"shots_count": 68,			"following_count": 306,			"created_at": "2010/11/01 13:48:40 -0400"		},		"created_at": "2013/03/01 09:18:07 -0500"	},	{		"id": 921145,		"title": "DEVA Type Treatment",		"height": 600,		"width": 800,		"likes_count": 58,		"comments_count": 8,		"rebounds_count": 1,		"url": "http://dribbble.com/shots/921145-DEVA-Type-Treatment",		"short_url": "http://drbl.in/gCIr",		"views_count": 315,		"rebound_source_id": null,		"image_url": "http://dribbble.s3.amazonaws.com/users/5340/screenshots/921145/deva-seafoam.jpg",		"image_teaser_url": "http://dribbble.s3.amazonaws.com/users/5340/screenshots/921145/deva-seafoam_teaser.jpg",		"image_400_url": "http://dribbble.s3.amazonaws.com/users/5340/screenshots/921145/deva-seafoam_1x.jpg",		"player": {			"id": 5340,			"name": "Tron Burgundy",			"location": "Jacksonville, Florida",			"followers_count": 1495,			"draftees_count": 4,			"likes_count": 1009,			"likes_received_count": 4519,			"comments_count": 480,			"comments_received_count": 421,			"rebounds_count": 23,			"rebounds_received_count": 21,			"url": "http://dribbble.com/tron",			"avatar_url": "http://dribbble.s3.amazonaws.com/users/5340/avatars/original/tron.jpg?1331680505",			"username": "tron",			"twitter_screen_name": "halftonedef",			"website_url": "http://www.halftonedef.com",			"drafted_by_player_id": 105,			"shots_count": 68,			"following_count": 306,			"created_at": "2010/11/01 13:48:40 -0400"		},		"created_at": "2013/01/31 09:42:32 -0500"	}]}